Git, GitHub & Ocean Acidification
…
## New names:
## Rows: 589 Columns: 9
## -- Column specification
## -------------------------------------------------------- Delimiter: "," chr
## (5): loc, species, treatment, size, comment dbl (4): ...1, animal_id, sl,
## activity
## i Use `spec()` to retrieve the full column specification for this data. i
## Specify the column types or set `show_col_types = FALSE` to quiet this message.
## * `` -> `...1`

comp_data <-  data %>% select(-...1)%>% drop_na()
comp_data

## # A tibble: 550 x 8
##    loc       species treatment animal_id    sl size  activity comment           
##    <chr>     <chr>   <chr>         <dbl> <dbl> <chr>    <dbl> <chr>             
##  1 LIRS 2014 ambon   CO2              64  57.0 big       8.15 27min means of sm~
##  2 LIRS 2014 ambon   CO2              65  38.2 big      10.5  27min means of sm~
##  3 LIRS 2014 ambon   CO2              67  39.3 big       6.51 27min means of sm~
##  4 LIRS 2014 ambon   CO2              68  36.1 big      27.8  27min means of sm~
##  5 LIRS 2014 lemon   CO2              74  36.4 big      36.7  27min means of sm~
##  6 LIRS 2014 ambon   CO2              75  35.9 big      42.8  27min means of sm~
##  7 LIRS 2014 lemon   CO2              81  35.7 big      21.9  27min means of sm~
##  8 LIRS 2014 ambon   CO2              84  38.4 big      24.6  27min means of sm~
##  9 LIRS 2014 ambon   CO2              85  48.3 big      35.1  27min means of sm~
## 10 LIRS 2014 ambon   CO2              88  43.4 big       1.02 27min means of sm~
## # ... with 540 more rows

Second, drop out irrelevant columns and check that there are no spelling issues in species and treatment. Create a table of summary data that includes: 1) the mean, 2) the standard error and 3) the sample sizes of unique fish across ALL six fish species for each treatment. This will also help you detect any spelling errors. You can use the R package flextable to print out the results in a nice neat format! If you havent heard about flextable spend 10 or so minutes having a look at its functionality. Its incredible! Youll use this for tables throughout.

# Drop irrelevant columns
Sp_Tr <- comp_data %>% select(-c(comment,loc,animal_id,size))
Sp_Tr

## # A tibble: 550 x 4
##    species treatment    sl activity
##    <chr>   <chr>     <dbl>    <dbl>
##  1 ambon   CO2        57.0     8.15
##  2 ambon   CO2        38.2    10.5 
##  3 ambon   CO2        39.3     6.51
##  4 ambon   CO2        36.1    27.8 
##  5 lemon   CO2        36.4    36.7 
##  6 ambon   CO2        35.9    42.8 
##  7 lemon   CO2        35.7    21.9 
##  8 ambon   CO2        38.4    24.6 
##  9 ambon   CO2        48.3    35.1 
## 10 ambon   CO2        43.4     1.02
## # ... with 540 more rows
…
